…
**9. Each course seems to have used a different subset of the nine
evaluation questions. How many teacher-course combinations asked all
nine questions?**

``` r
# code chunk for Q8

evals_clean |>
  count(course_id, teacher_id) |> 
  filter(n == 9)
```

    # A tibble: 48 × 3
       course_id       teacher_id     n
       <chr>           <fct>      <int>
     1 0000-SEM-SP     38335          9
     2 ARI3SE001AR-PDW 50752          9
     3 ARI3SP17AR-Z18  69447          9
     4 CII2SE02CI-L19  3662           9
     5 CII3SP12CI-Z17  3521           9
     6 CII7SE05CI-Z19  57632          9
     7 CII7SP02CI-Z20  54309          9
     8 CII7SP08CI-Z19  44665          9
     9 CIM3SE01SJO-Z19 59070          9
    10 ECB3NP02EC-Z20  38588          9
    # ℹ 38 more rows
…
``` r
evals_clean |>
  filter(question_no == 901) |>
  arrange(SET_score_avg) |>
  select(teacher_id, SET_score_avg) |>
  slice_max(SET_score_avg) # looking at instructors with the highest SET score average
```

    # A tibble: 361 × 2
       teacher_id SET_score_avg
       <fct>              <dbl>
     1 40903                  5
     2 84689                  5
     3 38238                  5
     4 38335                  5
     5 40763                  5
     6 76398                  5
     7 79745                  5
     8 76398                  5
     9 66287                  5
    10 79490                  5
    # ℹ 351 more rows
…
